Club1 Kyiv 01/01/1999
Club1 Kyiv 01/01/1999
Club1 Kyiv 01/01/1999
Club1 Dnipro 01/01/1999
Club1 Kyiv 01/01/1999
Club1 Kharkiv 01/01/1999
Club1 Kyiv 01/01/1999
Club1 Kharkiv 01/01/1999
Club1 Kyiv 01/01/1999
Club1 Dnipro 01/01/1999
Club1 Dnipro 01/01/1999
Club1 Kharkiv 01/01/1999
Club1 Dnipro 01/01/1999
Club1 Kharkiv 01/01/1999